
-
    request:
        method: GET
        url: 'https://sandbox-api.didww.com/v3/cities/368bf92f-c36e-473f-96fc-d53ed1b4028b?include=country%2Cregion%2Carea'
        headers:
            Host: sandbox-api.didww.com
            Accept-Encoding: null
            User-Agent: 'GuzzleHttp/6.3.3 curl/7.63.0 PHP/7.1.25'
            Accept: application/vnd.api+json
            Content-Type: application/vnd.api+json
            api-key: PLACEYOURAPIKEYHERE
    response:
        status:
            http_version: '1.1'
            code: '200'
            message: OK
        headers:
            Server: nginx
            Date: 'Mon, 19 Apr 2021 13:56:07 GMT'
            Content-Type: application/vnd.api+json
            Transfer-Encoding: chunked
            Connection: keep-alive
            X-Frame-Options: SAMEORIGIN
            X-XSS-Protection: '1; mode=block'
            X-Content-Type-Options: nosniff
            X-Download-Options: noopen
            X-Permitted-Cross-Domain-Policies: none
            Referrer-Policy: strict-origin-when-cross-origin
            ETag: 'W/"0459a0b3ae21bf485ef3b19b2894a771"'
            Cache-Control: 'max-age=0, private, must-revalidate'
            X-Request-Id: 7f345f43-362c-4097-827b-b18c6e89c738
            X-Runtime: '0.045377'
            Access-Control-Allow-Origin: '*'
            Access-Control-Allow-Headers: 'Origin, X-Requested-With, Content-Type, Accept, x-api-key, api-key, x-api-token, Cache-Control'
            Access-Control-Allow-Methods: 'GET, POST, DELETE, PUT, PATCH, OPTIONS'
            Access-Control-Allow-Credentials: 'true'
        body: '{"data":{"id":"368bf92f-c36e-473f-96fc-d53ed1b4028b","type":"cities","attributes":{"name":"New York"},"relationships":{"country":{"links":{"self":"https://sandbox-api.didww.com/v3/cities/368bf92f-c36e-473f-96fc-d53ed1b4028b/relationships/country","related":"https://sandbox-api.didww.com/v3/cities/368bf92f-c36e-473f-96fc-d53ed1b4028b/country"},"data":{"type":"countries","id":"1f6fc2bd-f081-4202-9b1a-d9cb88d942b9"}},"region":{"links":{"self":"https://sandbox-api.didww.com/v3/cities/368bf92f-c36e-473f-96fc-d53ed1b4028b/relationships/region","related":"https://sandbox-api.didww.com/v3/cities/368bf92f-c36e-473f-96fc-d53ed1b4028b/region"},"data":{"type":"regions","id":"ab7e83bc-814b-4cfa-a14c-d2df3de2a545"}},"area":{"links":{"self":"https://sandbox-api.didww.com/v3/cities/368bf92f-c36e-473f-96fc-d53ed1b4028b/relationships/area","related":"https://sandbox-api.didww.com/v3/cities/368bf92f-c36e-473f-96fc-d53ed1b4028b/area"},"data":null}}},"included":[{"id":"1f6fc2bd-f081-4202-9b1a-d9cb88d942b9","type":"countries","attributes":{"name":"United States","prefix":"1","iso":"US"},"relationships":{"regions":{"links":{"self":"https://sandbox-api.didww.com/v3/countries/1f6fc2bd-f081-4202-9b1a-d9cb88d942b9/relationships/regions","related":"https://sandbox-api.didww.com/v3/countries/1f6fc2bd-f081-4202-9b1a-d9cb88d942b9/regions"}}}},{"id":"ab7e83bc-814b-4cfa-a14c-d2df3de2a545","type":"regions","attributes":{"name":"New York"},"relationships":{"country":{"links":{"self":"https://sandbox-api.didww.com/v3/regions/ab7e83bc-814b-4cfa-a14c-d2df3de2a545/relationships/country","related":"https://sandbox-api.didww.com/v3/regions/ab7e83bc-814b-4cfa-a14c-d2df3de2a545/country"}}}}],"meta":{"api_version":"2021-04-19"}}'
-
    request:
        method: GET
        url: 'https://sandbox-api.didww.com/v3/cities'
        headers:
            Host: sandbox-api.didww.com
            Accept-Encoding: null
            User-Agent: 'GuzzleHttp/6.3.3 curl/7.63.0 PHP/7.1.25'
            Accept: application/vnd.api+json
            Content-Type: application/vnd.api+json
            api-key: PLACEYOURAPIKEYHERE
    response:
        status:
            http_version: '1.1'
            code: '200'
            message: OK
        headers:
            Server: nginx
            Date: 'Mon, 19 Apr 2021 13:56:11 GMT'
            Content-Type: application/vnd.api+json
            Transfer-Encoding: chunked
            Connection: keep-alive
            X-Frame-Options: SAMEORIGIN
            X-XSS-Protection: '1; mode=block'
            X-Content-Type-Options: nosniff
            X-Download-Options: noopen
            X-Permitted-Cross-Domain-Policies: none
            Referrer-Policy: strict-origin-when-cross-origin
            ETag: 'W/"82a7b70e7c38c19f6ee231f8092eb9c4"'
            Cache-Control: 'max-age=0, private, must-revalidate'
            X-Request-Id: a397e31c-ada4-45c0-8e67-365560eb6228
            X-Runtime: '0.655124'
            Access-Control-Allow-Origin: '*'
            Access-Control-Allow-Headers: 'Origin, X-Requested-With, Content-Type, Accept, x-api-key, api-key, x-api-token, Cache-Control'
            Access-Control-Allow-Methods: 'GET, POST, DELETE, PUT, PATCH, OPTIONS'
            Access-Control-Allow-Credentials: 'true'
        body: '{"data":[{"id":"bba735f9-7c37-499b-8998-94a5fca5d158","type":"cities","attributes":{"name":"Aachen"},"relationships":{"country":{"links":{"self":"https://sandbox-api.didww.com/v3/cities/bba735f9-7c37-499b-8998-94a5fca5d158/relationships/country","related":"https://sandbox-api.didww.com/v3/cities/bba735f9-7c37-499b-8998-94a5fca5d158/country"}},"region":{"links":{"self":"https://sandbox-api.didww.com/v3/cities/bba735f9-7c37-499b-8998-94a5fca5d158/relationships/region","related":"https://sandbox-api.didww.com/v3/cities/bba735f9-7c37-499b-8998-94a5fca5d158/region"}},"area":{"links":{"self":"https://sandbox-api.didww.com/v3/cities/bba735f9-7c37-499b-8998-94a5fca5d158/relationships/area","related":"https://sandbox-api.didww.com/v3/cities/bba735f9-7c37-499b-8998-94a5fca5d158/area"}}}},{"id":"94f4e428-ae52-4b35-9507-9449d32c30a9","type":"cities","attributes":{"name":"Aalst"},"relationships":{"country":{"links":{"self":"https://sandbox-api.didww.com/v3/cities/94f4e428-ae52-4b35-9507-9449d32c30a9/relationships/country","related":"https://sandbox-api.didww.com/v3/cities/94f4e428-ae52-4b35-9507-9449d32c30a9/country"}},"region":{"links":{"self":"https://sandbox-api.didww.com/v3/cities/94f4e428-ae52-4b35-9507-9449d32c30a9/relationships/region","related":"https://sandbox-api.didww.com/v3/cities/94f4e428-ae52-4b35-9507-9449d32c30a9/region"}},"area":{"links":{"self":"https://sandbox-api.didww.com/v3/cities/94f4e428-ae52-4b35-9507-9449d32c30a9/relationships/area","related":"https://sandbox-api.didww.com/v3/cities/94f4e428-ae52-4b35-9507-9449d32c30a9/area"}}}},{"id":"1ea1fc83-95ca-4dc4-a539-6d31a948b4af","type":"cities","attributes":{"name":"Abbeville"},"relationships":{"country":{"links":{"self":"https://sandbox-api.didww.com/v3/cities/1ea1fc83-95ca-4dc4-a539-6d31a948b4af/relationships/country","related":"https://sandbox-api.didww.com/v3/cities/1ea1fc83-95ca-4dc4-a539-6d31a948b4af/country"}},"region":{"links":{"self":"https://sandbox-api.didww.com/v3/cities/1ea1fc83-95ca-4dc4-a539-6d31a948b4af/relationships/region","related":"https://sandbox-api.didww.com/v3/cities/1ea1fc83-95ca-4dc4-a539-6d31a948b4af/region"}},"area":{"links":{"self":"https://sandbox-api.didww.com/v3/cities/1ea1fc83-95ca-4dc4-a539-6d31a948b4af/relationships/area","related":"https://sandbox-api.didww.com/v3/cities/1ea1fc83-95ca-4dc4-a539-6d31a948b4af/area"}}}},{"id":"9c84190a-1f6e-4177-b866-efcaee7bb92d","type":"cities","attributes":{"name":"Abbotsford"},"relationships":{"country":{"links":{"self":"https://sandbox-api.didww.com/v3/cities/9c84190a-1f6e-4177-b866-efcaee7bb92d/relationships/country","related":"https://sandbox-api.didww.com/v3/cities/9c84190a-1f6e-4177-b866-efcaee7bb92d/country"}},"region":{"links":{"self":"https://sandbox-api.didww.com/v3/cities/9c84190a-1f6e-4177-b866-efcaee7bb92d/relationships/region","related":"https://sandbox-api.didww.com/v3/cities/9c84190a-1f6e-4177-b866-efcaee7bb92d/region"}},"area":{"links":{"self":"https://sandbox-api.didww.com/v3/cities/9c84190a-1f6e-4177-b866-efcaee7bb92d/relationships/area","related":"https://sandbox-api.didww.com/v3/cities/9c84190a-1f6e-4177-b866-efcaee7bb92d/area"}}}},{"id":"4d12e415-21b8-43f4-9e0e-116be92ee3c0","type":"cities","attributes":{"name":"Aberdeen"},"relationships":{"country":{"links":{"self":"https://sandbox-api.didww.com/v3/cities/4d12e415-21b8-43f4-9e0e-116be92ee3c0/relationships/country","related":"https://sandbox-api.didww.com/v3/cities/4d12e415-21b8-43f4-9e0e-116be92ee3c0/country"}},"region":{"links":{"self":"https://sandbox-api.didww.com/v3/cities/4d12e415-21b8-43f4-9e0e-116be92ee3c0/relationships/region","related":"https://sandbox-api.didww.com/v3/cities/4d12e415-21b8-43f4-9e0e-116be92ee3c0/region"}},"area":{"links":{"self":"https://sandbox-api.didww.com/v3/cities/4d12e415-21b8-43f4-9e0e-116be92ee3c0/relationships/area","related":"https://sandbox-api.didww.com/v3/cities/4d12e415-21b8-43f4-9e0e-116be92ee3c0/area"}}}},{"id":"fe04ed98-808c-486a-be45-c2f593189d79","type":"cities","attributes":{"name":"Acapulco"},"relationships":{"country":{"links":{"self":"https://sandbox-api.didww.com/v3/cities/fe04ed98-808c-486a-be45-c2f593189d79/relationships/country","related":"https://sandbox-api.didww.com/v3/cities/fe04ed98-808c-486a-be45-c2f593189d79/country"}},"region":{"links":{"self":"https://sandbox-api.didww.com/v3/cities/fe04ed98-808c-486a-be45-c2f593189d79/relationships/region","related":"https://sandbox-api.didww.com/v3/cities/fe04ed98-808c-486a-be45-c2f593189d79/region"}},"area":{"links":{"self":"https://sandbox-api.didww.com/v3/cities/fe04ed98-808c-486a-be45-c2f593189d79/relationships/area","related":"https://sandbox-api.didww.com/v3/cities/fe04ed98-808c-486a-be45-c2f593189d79/area"}}}},{"id":"7a1557b7-fc6f-4efc-aee2-475ceecc843b","type":"cities","attributes":{"name":"A Coruna"},"relationships":{"country":{"links":{"self":"https://sandbox-api.didww.com/v3/cities/7a1557b7-fc6f-4efc-aee2-475ceecc843b/relationships/country","related":"https://sandbox-api.didww.com/v3/cities/7a1557b7-fc6f-4efc-aee2-475ceecc843b/country"}},"region":{"links":{"self":"https://sandbox-api.didww.com/v3/cities/7a1557b7-fc6f-4efc-aee2-475ceecc843b/relationships/region","related":"https://sandbox-api.didww.com/v3/cities/7a1557b7-fc6f-4efc-aee2-475ceecc843b/region"}},"area":{"links":{"self":"https://sandbox-api.didww.com/v3/cities/7a1557b7-fc6f-4efc-aee2-475ceecc843b/relationships/area","related":"https://sandbox-api.didww.com/v3/cities/7a1557b7-fc6f-4efc-aee2-475ceecc843b/area"}}}},{"id":"39f94fd9-c01f-42ef-863c-ac59871ed357","type":"cities","attributes":{"name":"Adana"},"relationships":{"country":{"links":{"self":"https://sandbox-api.didww.com/v3/cities/39f94fd9-c01f-42ef-863c-ac59871ed357/relationships/country","related":"https://sandbox-api.didww.com/v3/cities/39f94fd9-c01f-42ef-863c-ac59871ed357/country"}},"region":{"links":{"self":"https://sandbox-api.didww.com/v3/cities/39f94fd9-c01f-42ef-863c-ac59871ed357/relationships/region","related":"https://sandbox-api.didww.com/v3/cities/39f94fd9-c01f-42ef-863c-ac59871ed357/region"}},"area":{"links":{"self":"https://sandbox-api.didww.com/v3/cities/39f94fd9-c01f-42ef-863c-ac59871ed357/relationships/area","related":"https://sandbox-api.didww.com/v3/cities/39f94fd9-c01f-42ef-863c-ac59871ed357/area"}}}},{"id":"081c15ab-7643-4ff1-9103-6259fb1c9891","type":"cities","attributes":{"name":"Adelaide"},"relationships":{"country":{"links":{"self":"https://sandbox-api.didww.com/v3/cities/081c15ab-7643-4ff1-9103-6259fb1c9891/relationships/country","related":"https://sandbox-api.didww.com/v3/cities/081c15ab-7643-4ff1-9103-6259fb1c9891/country"}},"region":{"links":{"self":"https://sandbox-api.didww.com/v3/cities/081c15ab-7643-4ff1-9103-6259fb1c9891/relationships/region","related":"https://sandbox-api.didww.com/v3/cities/081c15ab-7643-4ff1-9103-6259fb1c9891/region"}},"area":{"links":{"self":"https://sandbox-api.didww.com/v3/cities/081c15ab-7643-4ff1-9103-6259fb1c9891/relationships/area","related":"https://sandbox-api.didww.com/v3/cities/081c15ab-7643-4ff1-9103-6259fb1c9891/area"}}}},{"id":"a87445bf-6169-4bca-81a1-2cfb53616ac4","type":"cities","attributes":{"name":"Aguadilla"},"relationships":{"country":{"links":{"self":"https://sandbox-api.didww.com/v3/cities/a87445bf-6169-4bca-81a1-2cfb53616ac4/relationships/country","related":"https://sandbox-api.didww.com/v3/cities/a87445bf-6169-4bca-81a1-2cfb53616ac4/country"}},"region":{"links":{"self":"https://sandbox-api.didww.com/v3/cities/a87445bf-6169-4bca-81a1-2cfb53616ac4/relationships/region","related":"https://sandbox-api.didww.com/v3/cities/a87445bf-6169-4bca-81a1-2cfb53616ac4/region"}},"area":{"links":{"self":"https://sandbox-api.didww.com/v3/cities/a87445bf-6169-4bca-81a1-2cfb53616ac4/relationships/area","related":"https://sandbox-api.didww.com/v3/cities/a87445bf-6169-4bca-81a1-2cfb53616ac4/area"}}}}],"meta":{"total_records":1647,"api_version":"2021-04-19"},"links":{"first":"https://sandbox-api.didww.com/v3/cities?page%5Bnumber%5D=1&page%5Bsize%5D=10","next":"https://sandbox-api.didww.com/v3/cities?page%5Bnumber%5D=2&page%5Bsize%5D=10","last":"https://sandbox-api.didww.com/v3/cities?page%5Bnumber%5D=165&page%5Bsize%5D=10"}}'
