
-
    request:
        method: GET
        url: 'https://sandbox-api.didww.com/v3/requirements?page%5Bsize%5D=5&page%5Bnumber%5D=1'
        headers:
            Host: sandbox-api.didww.com
            Accept-Encoding: null
            User-Agent: 'GuzzleHttp/6.3.3 curl/7.63.0 PHP/7.1.25'
            Accept: application/vnd.api+json
            Content-Type: application/vnd.api+json
            api-key: PLACEYOURAPIKEYHERE
    response:
        status:
            http_version: '1.1'
            code: '200'
            message: OK
        headers:
            Server: nginx
            Date: 'Thu, 01 Apr 2021 14:52:58 GMT'
            Content-Type: application/vnd.api+json
            Transfer-Encoding: chunked
            Connection: keep-alive
            X-Frame-Options: SAMEORIGIN
            X-XSS-Protection: '1; mode=block'
            X-Content-Type-Options: nosniff
            X-Download-Options: noopen
            X-Permitted-Cross-Domain-Policies: none
            Referrer-Policy: strict-origin-when-cross-origin
            Vary: [Accept, Origin]
            ETag: 'W/"91c21b3b634414ffc27219cc9295b112"'
            Cache-Control: 'max-age=0, private, must-revalidate'
            X-Request-Id: 0c736588-0812-4171-91c4-89981e2a475c
            X-Runtime: '0.085935'
            Access-Control-Allow-Headers: 'Origin, X-Requested-With, Content-Type, Accept, auth-key, x-api-key, api-key, x-api-token, X-User-Agent, Cache-Control'
            Access-Control-Expose-Headers: 'Date, X-Request-Id, Content-Disposition'
            Access-Control-Allow-Methods: 'GET, POST, DELETE, PUT, PATCH, OPTIONS'
            Access-Control-Allow-Credentials: 'true'
        body: '{"data":[{"id":"b6c80acb-3952-4d53-9e62-fe2348c0636b","type":"requirements","attributes":{"identity_type":"Any","personal_area_level":"Country","business_area_level":"WorldWide","address_area_level":"Area","personal_proof_qty":1,"business_proof_qty":2,"address_proof_qty":1,"personal_mandatory_fields":["Country"],"business_mandatory_fields":null,"service_description_required":false,"restriction_message":"Needs end user registration."},"relationships":{"country":{"links":{"self":"https://sandbox-api.didww.com/v3/requirements/b6c80acb-3952-4d53-9e62-fe2348c0636b/relationships/country","related":"https://sandbox-api.didww.com/v3/requirements/b6c80acb-3952-4d53-9e62-fe2348c0636b/country"}},"did_group_type":{"links":{"self":"https://sandbox-api.didww.com/v3/requirements/b6c80acb-3952-4d53-9e62-fe2348c0636b/relationships/did_group_type","related":"https://sandbox-api.didww.com/v3/requirements/b6c80acb-3952-4d53-9e62-fe2348c0636b/did_group_type"}},"personal_permanent_document":{"links":{"self":"https://sandbox-api.didww.com/v3/requirements/b6c80acb-3952-4d53-9e62-fe2348c0636b/relationships/personal_permanent_document","related":"https://sandbox-api.didww.com/v3/requirements/b6c80acb-3952-4d53-9e62-fe2348c0636b/personal_permanent_document"}},"business_permanent_document":{"links":{"self":"https://sandbox-api.didww.com/v3/requirements/b6c80acb-3952-4d53-9e62-fe2348c0636b/relationships/business_permanent_document","related":"https://sandbox-api.didww.com/v3/requirements/b6c80acb-3952-4d53-9e62-fe2348c0636b/business_permanent_document"}},"personal_onetime_document":{"links":{"self":"https://sandbox-api.didww.com/v3/requirements/b6c80acb-3952-4d53-9e62-fe2348c0636b/relationships/personal_onetime_document","related":"https://sandbox-api.didww.com/v3/requirements/b6c80acb-3952-4d53-9e62-fe2348c0636b/personal_onetime_document"}},"business_onetime_document":{"links":{"self":"https://sandbox-api.didww.com/v3/requirements/b6c80acb-3952-4d53-9e62-fe2348c0636b/relationships/business_onetime_document","related":"https://sandbox-api.didww.com/v3/requirements/b6c80acb-3952-4d53-9e62-fe2348c0636b/business_onetime_document"}},"personal_proof_types":{"links":{"self":"https://sandbox-api.didww.com/v3/requirements/b6c80acb-3952-4d53-9e62-fe2348c0636b/relationships/personal_proof_types","related":"https://sandbox-api.didww.com/v3/requirements/b6c80acb-3952-4d53-9e62-fe2348c0636b/personal_proof_types"}},"business_proof_types":{"links":{"self":"https://sandbox-api.didww.com/v3/requirements/b6c80acb-3952-4d53-9e62-fe2348c0636b/relationships/business_proof_types","related":"https://sandbox-api.didww.com/v3/requirements/b6c80acb-3952-4d53-9e62-fe2348c0636b/business_proof_types"}},"address_proof_types":{"links":{"self":"https://sandbox-api.didww.com/v3/requirements/b6c80acb-3952-4d53-9e62-fe2348c0636b/relationships/address_proof_types","related":"https://sandbox-api.didww.com/v3/requirements/b6c80acb-3952-4d53-9e62-fe2348c0636b/address_proof_types"}}}},{"id":"51b293af-a496-4bf2-9c68-5221b3b0dc1e","type":"requirements","attributes":{"identity_type":"Any","personal_area_level":"Country","business_area_level":"Country","address_area_level":"Country","personal_proof_qty":2,"business_proof_qty":1,"address_proof_qty":1,"personal_mandatory_fields":["Country"],"business_mandatory_fields":["Country"],"service_description_required":false,"restriction_message":"restriction_message"},"relationships":{"country":{"links":{"self":"https://sandbox-api.didww.com/v3/requirements/51b293af-a496-4bf2-9c68-5221b3b0dc1e/relationships/country","related":"https://sandbox-api.didww.com/v3/requirements/51b293af-a496-4bf2-9c68-5221b3b0dc1e/country"}},"did_group_type":{"links":{"self":"https://sandbox-api.didww.com/v3/requirements/51b293af-a496-4bf2-9c68-5221b3b0dc1e/relationships/did_group_type","related":"https://sandbox-api.didww.com/v3/requirements/51b293af-a496-4bf2-9c68-5221b3b0dc1e/did_group_type"}},"personal_permanent_document":{"links":{"self":"https://sandbox-api.didww.com/v3/requirements/51b293af-a496-4bf2-9c68-5221b3b0dc1e/relationships/personal_permanent_document","related":"https://sandbox-api.didww.com/v3/requirements/51b293af-a496-4bf2-9c68-5221b3b0dc1e/personal_permanent_document"}},"business_permanent_document":{"links":{"self":"https://sandbox-api.didww.com/v3/requirements/51b293af-a496-4bf2-9c68-5221b3b0dc1e/relationships/business_permanent_document","related":"https://sandbox-api.didww.com/v3/requirements/51b293af-a496-4bf2-9c68-5221b3b0dc1e/business_permanent_document"}},"personal_onetime_document":{"links":{"self":"https://sandbox-api.didww.com/v3/requirements/51b293af-a496-4bf2-9c68-5221b3b0dc1e/relationships/personal_onetime_document","related":"https://sandbox-api.didww.com/v3/requirements/51b293af-a496-4bf2-9c68-5221b3b0dc1e/personal_onetime_document"}},"business_onetime_document":{"links":{"self":"https://sandbox-api.didww.com/v3/requirements/51b293af-a496-4bf2-9c68-5221b3b0dc1e/relationships/business_onetime_document","related":"https://sandbox-api.didww.com/v3/requirements/51b293af-a496-4bf2-9c68-5221b3b0dc1e/business_onetime_document"}},"personal_proof_types":{"links":{"self":"https://sandbox-api.didww.com/v3/requirements/51b293af-a496-4bf2-9c68-5221b3b0dc1e/relationships/personal_proof_types","related":"https://sandbox-api.didww.com/v3/requirements/51b293af-a496-4bf2-9c68-5221b3b0dc1e/personal_proof_types"}},"business_proof_types":{"links":{"self":"https://sandbox-api.didww.com/v3/requirements/51b293af-a496-4bf2-9c68-5221b3b0dc1e/relationships/business_proof_types","related":"https://sandbox-api.didww.com/v3/requirements/51b293af-a496-4bf2-9c68-5221b3b0dc1e/business_proof_types"}},"address_proof_types":{"links":{"self":"https://sandbox-api.didww.com/v3/requirements/51b293af-a496-4bf2-9c68-5221b3b0dc1e/relationships/address_proof_types","related":"https://sandbox-api.didww.com/v3/requirements/51b293af-a496-4bf2-9c68-5221b3b0dc1e/address_proof_types"}}}},{"id":"f7c2a9a4-a40e-4f22-98ff-0f53c86052ac","type":"requirements","attributes":{"identity_type":"Any","personal_area_level":"WorldWide","business_area_level":"Country","address_area_level":"WorldWide","personal_proof_qty":1,"business_proof_qty":1,"address_proof_qty":1,"personal_mandatory_fields":null,"business_mandatory_fields":["Country"],"service_description_required":false,"restriction_message":"restriction_message"},"relationships":{"country":{"links":{"self":"https://sandbox-api.didww.com/v3/requirements/f7c2a9a4-a40e-4f22-98ff-0f53c86052ac/relationships/country","related":"https://sandbox-api.didww.com/v3/requirements/f7c2a9a4-a40e-4f22-98ff-0f53c86052ac/country"}},"did_group_type":{"links":{"self":"https://sandbox-api.didww.com/v3/requirements/f7c2a9a4-a40e-4f22-98ff-0f53c86052ac/relationships/did_group_type","related":"https://sandbox-api.didww.com/v3/requirements/f7c2a9a4-a40e-4f22-98ff-0f53c86052ac/did_group_type"}},"personal_permanent_document":{"links":{"self":"https://sandbox-api.didww.com/v3/requirements/f7c2a9a4-a40e-4f22-98ff-0f53c86052ac/relationships/personal_permanent_document","related":"https://sandbox-api.didww.com/v3/requirements/f7c2a9a4-a40e-4f22-98ff-0f53c86052ac/personal_permanent_document"}},"business_permanent_document":{"links":{"self":"https://sandbox-api.didww.com/v3/requirements/f7c2a9a4-a40e-4f22-98ff-0f53c86052ac/relationships/business_permanent_document","related":"https://sandbox-api.didww.com/v3/requirements/f7c2a9a4-a40e-4f22-98ff-0f53c86052ac/business_permanent_document"}},"personal_onetime_document":{"links":{"self":"https://sandbox-api.didww.com/v3/requirements/f7c2a9a4-a40e-4f22-98ff-0f53c86052ac/relationships/personal_onetime_document","related":"https://sandbox-api.didww.com/v3/requirements/f7c2a9a4-a40e-4f22-98ff-0f53c86052ac/personal_onetime_document"}},"business_onetime_document":{"links":{"self":"https://sandbox-api.didww.com/v3/requirements/f7c2a9a4-a40e-4f22-98ff-0f53c86052ac/relationships/business_onetime_document","related":"https://sandbox-api.didww.com/v3/requirements/f7c2a9a4-a40e-4f22-98ff-0f53c86052ac/business_onetime_document"}},"personal_proof_types":{"links":{"self":"https://sandbox-api.didww.com/v3/requirements/f7c2a9a4-a40e-4f22-98ff-0f53c86052ac/relationships/personal_proof_types","related":"https://sandbox-api.didww.com/v3/requirements/f7c2a9a4-a40e-4f22-98ff-0f53c86052ac/personal_proof_types"}},"business_proof_types":{"links":{"self":"https://sandbox-api.didww.com/v3/requirements/f7c2a9a4-a40e-4f22-98ff-0f53c86052ac/relationships/business_proof_types","related":"https://sandbox-api.didww.com/v3/requirements/f7c2a9a4-a40e-4f22-98ff-0f53c86052ac/business_proof_types"}},"address_proof_types":{"links":{"self":"https://sandbox-api.didww.com/v3/requirements/f7c2a9a4-a40e-4f22-98ff-0f53c86052ac/relationships/address_proof_types","related":"https://sandbox-api.didww.com/v3/requirements/f7c2a9a4-a40e-4f22-98ff-0f53c86052ac/address_proof_types"}}}},{"id":"edb71cff-d5e8-44ff-ba36-6f758066c175","type":"requirements","attributes":{"identity_type":"Any","personal_area_level":"Country","business_area_level":"Country","address_area_level":"Country","personal_proof_qty":1,"business_proof_qty":1,"address_proof_qty":0,"personal_mandatory_fields":["Country"],"business_mandatory_fields":["Country"],"service_description_required":true,"restriction_message":"restriction_message"},"relationships":{"country":{"links":{"self":"https://sandbox-api.didww.com/v3/requirements/edb71cff-d5e8-44ff-ba36-6f758066c175/relationships/country","related":"https://sandbox-api.didww.com/v3/requirements/edb71cff-d5e8-44ff-ba36-6f758066c175/country"}},"did_group_type":{"links":{"self":"https://sandbox-api.didww.com/v3/requirements/edb71cff-d5e8-44ff-ba36-6f758066c175/relationships/did_group_type","related":"https://sandbox-api.didww.com/v3/requirements/edb71cff-d5e8-44ff-ba36-6f758066c175/did_group_type"}},"personal_permanent_document":{"links":{"self":"https://sandbox-api.didww.com/v3/requirements/edb71cff-d5e8-44ff-ba36-6f758066c175/relationships/personal_permanent_document","related":"https://sandbox-api.didww.com/v3/requirements/edb71cff-d5e8-44ff-ba36-6f758066c175/personal_permanent_document"}},"business_permanent_document":{"links":{"self":"https://sandbox-api.didww.com/v3/requirements/edb71cff-d5e8-44ff-ba36-6f758066c175/relationships/business_permanent_document","related":"https://sandbox-api.didww.com/v3/requirements/edb71cff-d5e8-44ff-ba36-6f758066c175/business_permanent_document"}},"personal_onetime_document":{"links":{"self":"https://sandbox-api.didww.com/v3/requirements/edb71cff-d5e8-44ff-ba36-6f758066c175/relationships/personal_onetime_document","related":"https://sandbox-api.didww.com/v3/requirements/edb71cff-d5e8-44ff-ba36-6f758066c175/personal_onetime_document"}},"business_onetime_document":{"links":{"self":"https://sandbox-api.didww.com/v3/requirements/edb71cff-d5e8-44ff-ba36-6f758066c175/relationships/business_onetime_document","related":"https://sandbox-api.didww.com/v3/requirements/edb71cff-d5e8-44ff-ba36-6f758066c175/business_onetime_document"}},"personal_proof_types":{"links":{"self":"https://sandbox-api.didww.com/v3/requirements/edb71cff-d5e8-44ff-ba36-6f758066c175/relationships/personal_proof_types","related":"https://sandbox-api.didww.com/v3/requirements/edb71cff-d5e8-44ff-ba36-6f758066c175/personal_proof_types"}},"business_proof_types":{"links":{"self":"https://sandbox-api.didww.com/v3/requirements/edb71cff-d5e8-44ff-ba36-6f758066c175/relationships/business_proof_types","related":"https://sandbox-api.didww.com/v3/requirements/edb71cff-d5e8-44ff-ba36-6f758066c175/business_proof_types"}},"address_proof_types":{"links":{"self":"https://sandbox-api.didww.com/v3/requirements/edb71cff-d5e8-44ff-ba36-6f758066c175/relationships/address_proof_types","related":"https://sandbox-api.didww.com/v3/requirements/edb71cff-d5e8-44ff-ba36-6f758066c175/address_proof_types"}}}},{"id":"90b72a1a-1ebd-4771-b818-f7123f8ff7ec","type":"requirements","attributes":{"identity_type":"Any","personal_area_level":"WorldWide","business_area_level":"WorldWide","address_area_level":"WorldWide","personal_proof_qty":0,"business_proof_qty":0,"address_proof_qty":0,"personal_mandatory_fields":null,"business_mandatory_fields":null,"service_description_required":false,"restriction_message":"restriction_message"},"relationships":{"country":{"links":{"self":"https://sandbox-api.didww.com/v3/requirements/90b72a1a-1ebd-4771-b818-f7123f8ff7ec/relationships/country","related":"https://sandbox-api.didww.com/v3/requirements/90b72a1a-1ebd-4771-b818-f7123f8ff7ec/country"}},"did_group_type":{"links":{"self":"https://sandbox-api.didww.com/v3/requirements/90b72a1a-1ebd-4771-b818-f7123f8ff7ec/relationships/did_group_type","related":"https://sandbox-api.didww.com/v3/requirements/90b72a1a-1ebd-4771-b818-f7123f8ff7ec/did_group_type"}},"personal_permanent_document":{"links":{"self":"https://sandbox-api.didww.com/v3/requirements/90b72a1a-1ebd-4771-b818-f7123f8ff7ec/relationships/personal_permanent_document","related":"https://sandbox-api.didww.com/v3/requirements/90b72a1a-1ebd-4771-b818-f7123f8ff7ec/personal_permanent_document"}},"business_permanent_document":{"links":{"self":"https://sandbox-api.didww.com/v3/requirements/90b72a1a-1ebd-4771-b818-f7123f8ff7ec/relationships/business_permanent_document","related":"https://sandbox-api.didww.com/v3/requirements/90b72a1a-1ebd-4771-b818-f7123f8ff7ec/business_permanent_document"}},"personal_onetime_document":{"links":{"self":"https://sandbox-api.didww.com/v3/requirements/90b72a1a-1ebd-4771-b818-f7123f8ff7ec/relationships/personal_onetime_document","related":"https://sandbox-api.didww.com/v3/requirements/90b72a1a-1ebd-4771-b818-f7123f8ff7ec/personal_onetime_document"}},"business_onetime_document":{"links":{"self":"https://sandbox-api.didww.com/v3/requirements/90b72a1a-1ebd-4771-b818-f7123f8ff7ec/relationships/business_onetime_document","related":"https://sandbox-api.didww.com/v3/requirements/90b72a1a-1ebd-4771-b818-f7123f8ff7ec/business_onetime_document"}},"personal_proof_types":{"links":{"self":"https://sandbox-api.didww.com/v3/requirements/90b72a1a-1ebd-4771-b818-f7123f8ff7ec/relationships/personal_proof_types","related":"https://sandbox-api.didww.com/v3/requirements/90b72a1a-1ebd-4771-b818-f7123f8ff7ec/personal_proof_types"}},"business_proof_types":{"links":{"self":"https://sandbox-api.didww.com/v3/requirements/90b72a1a-1ebd-4771-b818-f7123f8ff7ec/relationships/business_proof_types","related":"https://sandbox-api.didww.com/v3/requirements/90b72a1a-1ebd-4771-b818-f7123f8ff7ec/business_proof_types"}},"address_proof_types":{"links":{"self":"https://sandbox-api.didww.com/v3/requirements/90b72a1a-1ebd-4771-b818-f7123f8ff7ec/relationships/address_proof_types","related":"https://sandbox-api.didww.com/v3/requirements/90b72a1a-1ebd-4771-b818-f7123f8ff7ec/address_proof_types"}}}}],"meta":{"total_records":73,"didww_api_version":"2021-03-22"},"links":{"first":"https://sandbox-api.didww.com/v3/requirements?page%5Bnumber%5D=1&page%5Bsize%5D=5","next":"https://sandbox-api.didww.com/v3/requirements?page%5Bnumber%5D=2&page%5Bsize%5D=5","last":"https://sandbox-api.didww.com/v3/requirements?page%5Bnumber%5D=15&page%5Bsize%5D=5"}}'
-
    request:
        method: GET
        url: 'https://sandbox-api.didww.com/v3/requirements/25d12afe-1ec6-4fe3-9621-b250dd1fb959?include=country%2Cdid_group_type%2Cpersonal_permanent_document%2Cbusiness_permanent_document%2Cpersonal_onetime_document%2Cbusiness_onetime_document%2Cpersonal_proof_types%2Cbusiness_proof_types%2Caddress_proof_types&page%5Bsize%5D=5&page%5Bnumber%5D=1'
        headers:
            Host: sandbox-api.didww.com
            Accept-Encoding: null
            User-Agent: 'GuzzleHttp/6.3.3 curl/7.63.0 PHP/7.1.25'
            Accept: application/vnd.api+json
            Content-Type: application/vnd.api+json
            api-key: PLACEYOURAPIKEYHERE
    response:
        status:
            http_version: '1.1'
            code: '200'
            message: OK
        headers:
            Server: nginx
            Date: 'Thu, 01 Apr 2021 14:52:59 GMT'
            Content-Type: application/vnd.api+json
            Transfer-Encoding: chunked
            Connection: keep-alive
            X-Frame-Options: SAMEORIGIN
            X-XSS-Protection: '1; mode=block'
            X-Content-Type-Options: nosniff
            X-Download-Options: noopen
            X-Permitted-Cross-Domain-Policies: none
            Referrer-Policy: strict-origin-when-cross-origin
            Vary: [Accept, Origin]
            ETag: 'W/"9fca5f54b37317cb1645075ea837c8df"'
            Cache-Control: 'max-age=0, private, must-revalidate'
            X-Request-Id: a351a713-71d2-4476-871f-3a70f6c56e15
            X-Runtime: '0.074310'
            Access-Control-Allow-Headers: 'Origin, X-Requested-With, Content-Type, Accept, auth-key, x-api-key, api-key, x-api-token, X-User-Agent, Cache-Control'
            Access-Control-Expose-Headers: 'Date, X-Request-Id, Content-Disposition'
            Access-Control-Allow-Methods: 'GET, POST, DELETE, PUT, PATCH, OPTIONS'
            Access-Control-Allow-Credentials: 'true'
        body: '{"data":{"id":"25d12afe-1ec6-4fe3-9621-b250dd1fb959","type":"requirements","attributes":{"identity_type":"Any","personal_area_level":"WorldWide","business_area_level":"WorldWide","address_area_level":"WorldWide","personal_proof_qty":1,"business_proof_qty":1,"address_proof_qty":1,"personal_mandatory_fields":["Birth Date","Country","Personal Tax ID"],"business_mandatory_fields":["Proof of ID","VAT Number / TAX Code","Country","Company ID","Representative Tax ID"],"service_description_required":true,"restriction_message":"End User Registration is Required"},"relationships":{"country":{"links":{"self":"https://sandbox-api.didww.com/v3/requirements/25d12afe-1ec6-4fe3-9621-b250dd1fb959/relationships/country","related":"https://sandbox-api.didww.com/v3/requirements/25d12afe-1ec6-4fe3-9621-b250dd1fb959/country"},"data":{"type":"countries","id":"5b156dc2-327e-4665-bdc5-35cd8729b885"}},"did_group_type":{"links":{"self":"https://sandbox-api.didww.com/v3/requirements/25d12afe-1ec6-4fe3-9621-b250dd1fb959/relationships/did_group_type","related":"https://sandbox-api.didww.com/v3/requirements/25d12afe-1ec6-4fe3-9621-b250dd1fb959/did_group_type"},"data":{"type":"did_group_types","id":"994ea201-4a4d-4b27-ac4b-b5916ac969a3"}},"personal_permanent_document":{"links":{"self":"https://sandbox-api.didww.com/v3/requirements/25d12afe-1ec6-4fe3-9621-b250dd1fb959/relationships/personal_permanent_document","related":"https://sandbox-api.didww.com/v3/requirements/25d12afe-1ec6-4fe3-9621-b250dd1fb959/personal_permanent_document"},"data":{"type":"supporting_document_templates","id":"fd38c86d-b69b-4ca8-b73c-286a3b93d107"}},"business_permanent_document":{"links":{"self":"https://sandbox-api.didww.com/v3/requirements/25d12afe-1ec6-4fe3-9621-b250dd1fb959/relationships/business_permanent_document","related":"https://sandbox-api.didww.com/v3/requirements/25d12afe-1ec6-4fe3-9621-b250dd1fb959/business_permanent_document"},"data":{"type":"supporting_document_templates","id":"fd38c86d-b69b-4ca8-b73c-286a3b93d107"}},"personal_onetime_document":{"links":{"self":"https://sandbox-api.didww.com/v3/requirements/25d12afe-1ec6-4fe3-9621-b250dd1fb959/relationships/personal_onetime_document","related":"https://sandbox-api.didww.com/v3/requirements/25d12afe-1ec6-4fe3-9621-b250dd1fb959/personal_onetime_document"},"data":{"type":"supporting_document_templates","id":"206ccec2-1166-461f-9f58-3a56823db548"}},"business_onetime_document":{"links":{"self":"https://sandbox-api.didww.com/v3/requirements/25d12afe-1ec6-4fe3-9621-b250dd1fb959/relationships/business_onetime_document","related":"https://sandbox-api.didww.com/v3/requirements/25d12afe-1ec6-4fe3-9621-b250dd1fb959/business_onetime_document"},"data":{"type":"supporting_document_templates","id":"206ccec2-1166-461f-9f58-3a56823db548"}},"personal_proof_types":{"links":{"self":"https://sandbox-api.didww.com/v3/requirements/25d12afe-1ec6-4fe3-9621-b250dd1fb959/relationships/personal_proof_types","related":"https://sandbox-api.didww.com/v3/requirements/25d12afe-1ec6-4fe3-9621-b250dd1fb959/personal_proof_types"},"data":[{"type":"proof_types","id":"19cd7b22-559b-41d4-99c9-7ad7ad63d5d1"}]},"business_proof_types":{"links":{"self":"https://sandbox-api.didww.com/v3/requirements/25d12afe-1ec6-4fe3-9621-b250dd1fb959/relationships/business_proof_types","related":"https://sandbox-api.didww.com/v3/requirements/25d12afe-1ec6-4fe3-9621-b250dd1fb959/business_proof_types"},"data":[{"type":"proof_types","id":"af07842f-6339-46fe-83b6-57e457af1eaf"},{"type":"proof_types","id":"56b7d7cb-4d36-49c8-a786-2179967bba4c"},{"type":"proof_types","id":"ecf699c6-b1ad-4866-974b-06d2e8a698e6"},{"type":"proof_types","id":"7f80edde-1b80-4410-af06-76a38ea9e576"},{"type":"proof_types","id":"80253913-cd8b-4ce2-91a9-9299587ac409"},{"type":"proof_types","id":"0eb83bb2-730c-45fb-b39c-c0bf02f88e9e"},{"type":"proof_types","id":"1f3f4747-0835-44a4-9e5f-40e52ec4fce7"}]},"address_proof_types":{"links":{"self":"https://sandbox-api.didww.com/v3/requirements/25d12afe-1ec6-4fe3-9621-b250dd1fb959/relationships/address_proof_types","related":"https://sandbox-api.didww.com/v3/requirements/25d12afe-1ec6-4fe3-9621-b250dd1fb959/address_proof_types"},"data":[{"type":"proof_types","id":"d2c1b3fb-29f7-46ca-ba82-b617f4630b78"}]}}},"included":[{"id":"5b156dc2-327e-4665-bdc5-35cd8729b885","type":"countries","attributes":{"name":"Spain","prefix":"34","iso":"ES"},"relationships":{"regions":{"links":{"self":"https://sandbox-api.didww.com/v3/countries/5b156dc2-327e-4665-bdc5-35cd8729b885/relationships/regions","related":"https://sandbox-api.didww.com/v3/countries/5b156dc2-327e-4665-bdc5-35cd8729b885/regions"}}}},{"id":"994ea201-4a4d-4b27-ac4b-b5916ac969a3","type":"did_group_types","attributes":{"name":"Local"}},{"id":"fd38c86d-b69b-4ca8-b73c-286a3b93d107","type":"supporting_document_templates","attributes":{"name":"Belgium Registration Form","permanent":true,"url":"https://sandbox-api.didww.com/storage/public/e8lziulj68xetfa5ed6na3g7q7ra"}},{"id":"206ccec2-1166-461f-9f58-3a56823db548","type":"supporting_document_templates","attributes":{"name":"Generic LOI","permanent":false,"url":"https://sandbox-api.didww.com/storage/public/w7f2irbo819la7vd7up7u67pkmkn"}},{"id":"19cd7b22-559b-41d4-99c9-7ad7ad63d5d1","type":"proof_types","attributes":{"name":"Drivers License","entity_type":"Personal"}},{"id":"af07842f-6339-46fe-83b6-57e457af1eaf","type":"proof_types","attributes":{"name":"Business Registration Certificate / Incorporation Certificate","entity_type":"Business"}},{"id":"56b7d7cb-4d36-49c8-a786-2179967bba4c","type":"proof_types","attributes":{"name":"Trade License","entity_type":"Business"}},{"id":"ecf699c6-b1ad-4866-974b-06d2e8a698e6","type":"proof_types","attributes":{"name":"Excerpt from the commercial register","entity_type":"Business"}},{"id":"7f80edde-1b80-4410-af06-76a38ea9e576","type":"proof_types","attributes":{"name":"Other","entity_type":"Business"}},{"id":"80253913-cd8b-4ce2-91a9-9299587ac409","type":"proof_types","attributes":{"name":"Passport","entity_type":"Business"}},{"id":"0eb83bb2-730c-45fb-b39c-c0bf02f88e9e","type":"proof_types","attributes":{"name":"National ID","entity_type":"Business"}},{"id":"1f3f4747-0835-44a4-9e5f-40e52ec4fce7","type":"proof_types","attributes":{"name":"Drivers License","entity_type":"Business"}},{"id":"d2c1b3fb-29f7-46ca-ba82-b617f4630b78","type":"proof_types","attributes":{"name":"Copy of Phone Bill","entity_type":"Address"}}],"meta":{"didww_api_version":"2021-03-22"}}'
